<?xml version="1.0"?>
<svg width="1374.143" height="346.396" xmlns="http://www.w3.org/2000/svg" xmlns:svg="http://www.w3.org/2000/svg">
 <g class="layer">
  <title>Layer 1</title>
  <g fill="#231F20" id="svg_1">
   <path d="m195.034,0s28.407,58.086 23.319,82.252c0,0 74.62,24.167 82.677,64.024c0,-0.426 40.701,-53.849 -105.996,-146.276zm-28.832,86.916c7.21,15.266 10.6,31.801 14.841,48.76l-42.397,-16.113c3.815,-25.862 -21.2,-64.869 -21.2,-64.869l48.756,32.222zm-75.468,39.856c4.663,12.295 10.175,27.982 12.719,41.549l-38.161,-9.325c3.816,-25.864 -20.35,-56.814 -20.35,-56.814l45.792,24.59z" fill="#ffffff" id="svg_2"/>
   <path d="m174.258,64.868s170.867,119.989 182.314,166.629c8.479,35.191 -16.113,67.414 -16.113,67.414s-13.142,-91.584 -340.459,47.485c33.07,-36.889 51.301,-84.373 46.214,-135.253c-2.12,-20.775 -7.207,-40.701 -16.113,-58.509l76.743,40.277c0,1.271 0,2.544 0.426,3.814c2.966,30.955 0.847,61.48 -6.359,89.463c15.688,-33.069 23.319,-70.806 19.503,-109.813c-2.121,-23.742 -8.056,-46.214 -17.384,-66.564l81.831,54.692c0.422,2.544 0.422,5.513 0.847,8.057c3.391,34.346 0,67.84 -8.904,98.365c19.079,-35.612 28.832,-77.165 24.591,-119.988c-2.971,-31.375 -12.3,-60.207 -27.137,-86.069z" fill="#ffffff" id="svg_3"/>
  </g>
  <g fill="#231F20" id="svg_4">
   <path d="m382.86,217.504c0,49.186 40.702,83.527 92.428,81.407c30.951,-1.271 49.183,-12.722 55.542,-15.688l0,-42.399l-6.359,0c-5.935,25.865 -21.623,47.487 -48.758,47.487c-33.495,0 -59.357,-32.646 -59.357,-70.808c0,-38.157 26.284,-70.806 59.357,-70.806c27.135,0 42.823,21.2 48.758,47.485l6.359,0l0,-42.396c-6.359,-2.966 -24.591,-13.991 -55.542,-15.688c-51.726,-2.12 -92.428,32.223 -92.428,81.406zm243.792,-81.407c-45.367,0 -80.56,36.464 -80.56,81.831c0,44.944 35.192,81.83 80.56,81.83s80.556,-36.464 80.556,-81.83c-0.001,-45.367 -35.189,-81.831 -80.556,-81.831zm0,153.486c-28.407,0 -47.486,-33.495 -47.486,-72.079c0,-38.157 19.079,-72.078 47.486,-72.078s47.485,33.495 47.485,72.078c0,38.16 -19.079,72.079 -47.485,72.079zm265.415,-119.99c0,-13.142 13.567,-23.742 27.559,-24.167c15.265,0 30.529,6.785 38.582,36.463l4.241,0l0,-35.612c-6.358,-2.122 -21.622,-10.18 -43.248,-10.18c-26.284,0 -52.572,16.113 -52.572,46.217c0,53.846 73.772,43.672 73.772,79.71c0,18.23 -11.021,26.714 -27.981,26.714c-16.534,0 -35.615,-13.57 -41.976,-40.705l-5.513,0l0,39.008c6.785,2.118 24.168,12.295 46.639,12.295c39.008,0 58.086,-25.864 58.086,-49.185c0.425,-57.661 -77.589,-40.28 -77.589,-80.558zm293.397,-13.992c0,-3.391 2.122,-6.359 4.666,-8.054l10.176,-5.512l0,-2.544l-60.63,0l0,2.544l10.175,5.512c2.97,1.694 4.664,4.663 4.664,8.054l0,124.229c0,3.395 -2.12,6.359 -4.664,8.057l-10.175,5.514l0,2.544l60.63,0l0,-2.544l-10.176,-5.514c-2.969,-1.696 -4.666,-4.662 -4.666,-8.057l0,-124.229zm-476.985,-16.109l0,2.544l10.179,5.512c2.966,1.694 4.663,4.663 4.663,8.054l0,124.229c0,3.395 -2.12,6.359 -4.663,8.057l-10.179,5.514l0,2.544l60.634,0l0,-2.544l-10.178,-5.514c-2.968,-1.696 -4.664,-4.662 -4.664,-8.057l0,-124.23c0,-2.118 0.848,-3.814 1.696,-5.51c0.848,-1.271 2.119,-1.697 3.816,-1.697l19.503,0c11.869,0 24.592,13.992 24.592,31.376l0,8.903c0,17.382 -11.447,29.255 -24.592,29.255l-11.872,0s38.157,65.718 44.096,72.927c8.479,10.601 36.463,24.592 58.086,19.929c-21.2,-11.448 -41.127,-47.91 -57.664,-78.439c-8.903,-1.271 -14.838,-4.239 -18.653,-6.783c33.494,0 41.974,-27.561 41.974,-41.127c0,-36.886 -25.863,-44.52 -55.116,-44.52l-71.657,0l-0.001,-0.423zm504.546,0l0,2.544l10.175,5.512c2.97,1.694 4.666,4.663 4.666,8.054l0,124.229c0,3.395 -2.122,6.359 -4.666,8.057l-10.175,5.514l0,2.544l60.63,0l0,-2.544l-10.176,-5.514c-2.969,-1.696 -4.662,-4.662 -4.662,-8.057l0,-124.23c0,-2.118 0.847,-3.814 1.693,-5.51c0.85,-1.271 2.12,-1.697 3.815,-1.697l19.504,0c11.871,0 24.592,13.992 24.592,31.376l0,8.903c0,17.382 -11.447,29.255 -24.592,29.255l-11.87,0s38.158,65.718 44.093,72.927c8.48,10.601 36.464,24.592 58.09,19.929c-21.201,-11.448 -41.13,-47.91 -57.665,-78.439c-8.902,-1.271 -14.838,-4.239 -18.652,-6.783c33.494,0 41.974,-27.561 41.974,-41.127c0,-36.886 -25.863,-44.52 -55.117,-44.52l-71.655,0l-0.002,-0.423zm-91.581,148.394c-2.118,-1.271 -3.391,-2.97 -4.24,-4.662l-57.663,-143.732l-18.654,0l-57.662,143.732c-0.848,2.118 -2.118,3.815 -4.24,4.662l-10.176,5.514l0,2.544l46.639,0l0,-2.544l-8.902,-4.662c-2.97,-1.697 -5.088,-4.667 -5.088,-8.482c0,-1.271 0.422,-2.544 0.848,-3.391l12.719,-31.376l54.271,0l12.721,31.376c0.425,0.847 0.425,2.118 0.425,2.966c0,2.97 -1.271,5.513 -3.392,7.21c-0.425,0.421 -0.85,0.421 -1.271,0.847l-10.175,5.514l0,2.544l64.021,0l0,-2.544l-10.181,-5.516zm-102.606,-53.845l22.473,-55.967l22.473,55.967l-44.946,0z" fill="#ffffff" id="svg_5"/>
  </g>
 </g>
</svg>